^E:\GITLABS\GRAPHICS-PLUS\OPENGLSETUP\BIN\INTERMEDIATES\X64\DEBUG\MAIN.OBJ
E:\GITLABS\GRAPHICS-PLUS\OPENGLSETUP\BIN\X64\DEBUG\OPENGLSETUP.EXE
E:\GITLABS\GRAPHICS-PLUS\OPENGLSETUP\BIN\INTERMEDIATES\X64\DEBUG\OPENGLSETUP.ILK
E:\GITLABS\GRAPHICS-PLUS\OPENGLSETUP\BIN\X64\DEBUG\OPENGLSETUP.PDB
